{
  "changes": [
    {
      "description": "Internal maintenance: Bump release pipe version. Add multi-platform build: linux/arm64 and linux/amd64.",
      "type": "patch"
    }
  ],
  "created_at": "2024-08-08T16:48:22+00:00",
  "version": "1.2.2"
}